// Jest Snapshot v1, https://goo.gl/fbAQLP

exports[`services/pg #getSqlSchemaForModel returns SQL to create model tables 1`] = `
[
  "CREATE TABLE IF NOT EXISTS "users" (
        "user_id" TEXT,
        "created_at" TIMESTAMP WITH TIME ZONE NOT NULL,
        "updated_at" TIMESTAMP WITH TIME ZONE NOT NULL,
        "version" BIGINT,
        "entity" JSON,
        PRIMARY KEY ("user_id")
      );",
  "CREATE TABLE IF NOT EXISTS "users_events" (
        "user_id" TEXT,
        "created_at" TIMESTAMP WITH TIME ZONE NOT NULL,
        "version" BIGINT,
        "type" VARCHAR(256),
        "event" JSON,
        PRIMARY KEY ("user_id", "version")
      );",
  "CREATE TABLE IF NOT EXISTS "users_snapshots" (
        "user_id" TEXT,
        "created_at" TIMESTAMP WITH TIME ZONE NOT NULL,
        "updated_at" TIMESTAMP WITH TIME ZONE NOT NULL,
        "version" BIGINT,
        "entity" JSON,
        PRIMARY KEY ("user_id")
      );",
  "COMMENT ON TABLE "users" IS NULL",
  "COMMENT ON TABLE "users_events" IS NULL",
  "COMMENT ON TABLE "users_snapshots" IS NULL",
]
`;

exports[`services/pg #getSqlSchemaForModel returns SQL to create model tables with comments 1`] = `
[
  "CREATE TABLE IF NOT EXISTS "users" (
        "user_id" TEXT,
        "created_at" TIMESTAMP WITH TIME ZONE NOT NULL,
        "updated_at" TIMESTAMP WITH TIME ZONE NOT NULL,
        "version" BIGINT,
        "entity" JSON,
        PRIMARY KEY ("user_id")
      );",
  "CREATE TABLE IF NOT EXISTS "users_events" (
        "user_id" TEXT,
        "created_at" TIMESTAMP WITH TIME ZONE NOT NULL,
        "version" BIGINT,
        "type" VARCHAR(256),
        "event" JSON,
        PRIMARY KEY ("user_id", "version")
      );",
  "CREATE TABLE IF NOT EXISTS "users_snapshots" (
        "user_id" TEXT,
        "created_at" TIMESTAMP WITH TIME ZONE NOT NULL,
        "updated_at" TIMESTAMP WITH TIME ZONE NOT NULL,
        "version" BIGINT,
        "entity" JSON,
        PRIMARY KEY ("user_id")
      );",
  "COMMENT ON TABLE "users" IS '[entities] Users information'",
  "COMMENT ON TABLE "users_events" IS '[events] Users information'",
  "COMMENT ON TABLE "users_snapshots" IS '[snapshots] Users information'",
]
`;

exports[`services/pg #getSqlSchemaForModel returns SQL to create model tables with database source name 1`] = `
[
  "CREATE TABLE IF NOT EXISTS "entities_users" (
        "user_id" TEXT,
        "created_at" TIMESTAMP WITH TIME ZONE NOT NULL,
        "updated_at" TIMESTAMP WITH TIME ZONE NOT NULL,
        "version" BIGINT,
        "entity" JSON,
        PRIMARY KEY ("user_id")
      );",
  "CREATE TABLE IF NOT EXISTS "entities_users_events" (
        "user_id" TEXT,
        "created_at" TIMESTAMP WITH TIME ZONE NOT NULL,
        "version" BIGINT,
        "type" VARCHAR(256),
        "event" JSON,
        PRIMARY KEY ("user_id", "version")
      );",
  "CREATE TABLE IF NOT EXISTS "entities_users_snapshots" (
        "user_id" TEXT,
        "created_at" TIMESTAMP WITH TIME ZONE NOT NULL,
        "updated_at" TIMESTAMP WITH TIME ZONE NOT NULL,
        "version" BIGINT,
        "entity" JSON,
        PRIMARY KEY ("user_id")
      );",
  "COMMENT ON TABLE "entities_users" IS NULL",
  "COMMENT ON TABLE "entities_users_events" IS NULL",
  "COMMENT ON TABLE "entities_users_snapshots" IS NULL",
]
`;

exports[`services/pg #getSqlSchemaForModelDeletion returns SQL to delete model tables 1`] = `
[
  "DROP TABLE IF EXISTS "users";",
  "DROP TABLE IF EXISTS "users_events";",
  "DROP TABLE IF EXISTS "users_snapshots";",
]
`;

exports[`services/pg #getSqlSchemaFromModels returns SQL to create all model tables 1`] = `
[
  "CREATE TABLE IF NOT EXISTS "users" (
        "user_id" TEXT,
        "created_at" TIMESTAMP WITH TIME ZONE NOT NULL,
        "updated_at" TIMESTAMP WITH TIME ZONE NOT NULL,
        "version" BIGINT,
        "entity" JSON,
        PRIMARY KEY ("user_id")
      );",
  "CREATE TABLE IF NOT EXISTS "users_events" (
        "user_id" TEXT,
        "created_at" TIMESTAMP WITH TIME ZONE NOT NULL,
        "version" BIGINT,
        "type" VARCHAR(256),
        "event" JSON,
        PRIMARY KEY ("user_id", "version")
      );",
  "CREATE TABLE IF NOT EXISTS "users_snapshots" (
        "user_id" TEXT,
        "created_at" TIMESTAMP WITH TIME ZONE NOT NULL,
        "updated_at" TIMESTAMP WITH TIME ZONE NOT NULL,
        "version" BIGINT,
        "entity" JSON,
        PRIMARY KEY ("user_id")
      );",
  "COMMENT ON TABLE "users" IS NULL",
  "COMMENT ON TABLE "users_events" IS NULL",
  "COMMENT ON TABLE "users_snapshots" IS NULL",
  "CREATE TABLE IF NOT EXISTS "accounts" (
        "account_id" TEXT,
        "created_at" TIMESTAMP WITH TIME ZONE NOT NULL,
        "updated_at" TIMESTAMP WITH TIME ZONE NOT NULL,
        "version" BIGINT,
        "entity" JSON,
        PRIMARY KEY ("account_id")
      );",
  "CREATE TABLE IF NOT EXISTS "accounts_events" (
        "account_id" TEXT,
        "created_at" TIMESTAMP WITH TIME ZONE NOT NULL,
        "version" BIGINT,
        "type" VARCHAR(256),
        "event" JSON,
        PRIMARY KEY ("account_id", "version")
      );",
  "CREATE TABLE IF NOT EXISTS "accounts_snapshots" (
        "account_id" TEXT,
        "created_at" TIMESTAMP WITH TIME ZONE NOT NULL,
        "updated_at" TIMESTAMP WITH TIME ZONE NOT NULL,
        "version" BIGINT,
        "entity" JSON,
        PRIMARY KEY ("account_id")
      );",
  "COMMENT ON TABLE "accounts" IS NULL",
  "COMMENT ON TABLE "accounts_events" IS NULL",
  "COMMENT ON TABLE "accounts_snapshots" IS NULL",
]
`;

exports[`services/pg #getSqlSchemaFromModels returns SQL to create all model tables with comments 1`] = `
[
  "CREATE TABLE IF NOT EXISTS "users" (
        "user_id" TEXT,
        "created_at" TIMESTAMP WITH TIME ZONE NOT NULL,
        "updated_at" TIMESTAMP WITH TIME ZONE NOT NULL,
        "version" BIGINT,
        "entity" JSON,
        PRIMARY KEY ("user_id")
      );",
  "CREATE TABLE IF NOT EXISTS "users_events" (
        "user_id" TEXT,
        "created_at" TIMESTAMP WITH TIME ZONE NOT NULL,
        "version" BIGINT,
        "type" VARCHAR(256),
        "event" JSON,
        PRIMARY KEY ("user_id", "version")
      );",
  "CREATE TABLE IF NOT EXISTS "users_snapshots" (
        "user_id" TEXT,
        "created_at" TIMESTAMP WITH TIME ZONE NOT NULL,
        "updated_at" TIMESTAMP WITH TIME ZONE NOT NULL,
        "version" BIGINT,
        "entity" JSON,
        PRIMARY KEY ("user_id")
      );",
  "COMMENT ON TABLE "users" IS '[entities] Users information'",
  "COMMENT ON TABLE "users_events" IS '[events] Users information'",
  "COMMENT ON TABLE "users_snapshots" IS '[snapshots] Users information'",
  "CREATE TABLE IF NOT EXISTS "accounts" (
        "account_id" TEXT,
        "created_at" TIMESTAMP WITH TIME ZONE NOT NULL,
        "updated_at" TIMESTAMP WITH TIME ZONE NOT NULL,
        "version" BIGINT,
        "entity" JSON,
        PRIMARY KEY ("account_id")
      );",
  "CREATE TABLE IF NOT EXISTS "accounts_events" (
        "account_id" TEXT,
        "created_at" TIMESTAMP WITH TIME ZONE NOT NULL,
        "version" BIGINT,
        "type" VARCHAR(256),
        "event" JSON,
        PRIMARY KEY ("account_id", "version")
      );",
  "CREATE TABLE IF NOT EXISTS "accounts_snapshots" (
        "account_id" TEXT,
        "created_at" TIMESTAMP WITH TIME ZONE NOT NULL,
        "updated_at" TIMESTAMP WITH TIME ZONE NOT NULL,
        "version" BIGINT,
        "entity" JSON,
        PRIMARY KEY ("account_id")
      );",
  "COMMENT ON TABLE "accounts" IS '[entities] Accounts information'",
  "COMMENT ON TABLE "accounts_events" IS '[events] Accounts information'",
  "COMMENT ON TABLE "accounts_snapshots" IS '[snapshots] Accounts information'",
]
`;

exports[`services/pg #getSqlSchemaFromModels returns SQL to delete then create all model tables 1`] = `
[
  "DROP TABLE IF EXISTS "users";",
  "DROP TABLE IF EXISTS "users_events";",
  "DROP TABLE IF EXISTS "users_snapshots";",
  "CREATE TABLE IF NOT EXISTS "users" (
        "user_id" TEXT,
        "created_at" TIMESTAMP WITH TIME ZONE NOT NULL,
        "updated_at" TIMESTAMP WITH TIME ZONE NOT NULL,
        "version" BIGINT,
        "entity" JSON,
        PRIMARY KEY ("user_id")
      );",
  "CREATE TABLE IF NOT EXISTS "users_events" (
        "user_id" TEXT,
        "created_at" TIMESTAMP WITH TIME ZONE NOT NULL,
        "version" BIGINT,
        "type" VARCHAR(256),
        "event" JSON,
        PRIMARY KEY ("user_id", "version")
      );",
  "CREATE TABLE IF NOT EXISTS "users_snapshots" (
        "user_id" TEXT,
        "created_at" TIMESTAMP WITH TIME ZONE NOT NULL,
        "updated_at" TIMESTAMP WITH TIME ZONE NOT NULL,
        "version" BIGINT,
        "entity" JSON,
        PRIMARY KEY ("user_id")
      );",
  "COMMENT ON TABLE "users" IS NULL",
  "COMMENT ON TABLE "users_events" IS NULL",
  "COMMENT ON TABLE "users_snapshots" IS NULL",
  "DROP TABLE IF EXISTS "accounts";",
  "DROP TABLE IF EXISTS "accounts_events";",
  "DROP TABLE IF EXISTS "accounts_snapshots";",
  "CREATE TABLE IF NOT EXISTS "accounts" (
        "account_id" TEXT,
        "created_at" TIMESTAMP WITH TIME ZONE NOT NULL,
        "updated_at" TIMESTAMP WITH TIME ZONE NOT NULL,
        "version" BIGINT,
        "entity" JSON,
        PRIMARY KEY ("account_id")
      );",
  "CREATE TABLE IF NOT EXISTS "accounts_events" (
        "account_id" TEXT,
        "created_at" TIMESTAMP WITH TIME ZONE NOT NULL,
        "version" BIGINT,
        "type" VARCHAR(256),
        "event" JSON,
        PRIMARY KEY ("account_id", "version")
      );",
  "CREATE TABLE IF NOT EXISTS "accounts_snapshots" (
        "account_id" TEXT,
        "created_at" TIMESTAMP WITH TIME ZONE NOT NULL,
        "updated_at" TIMESTAMP WITH TIME ZONE NOT NULL,
        "version" BIGINT,
        "entity" JSON,
        PRIMARY KEY ("account_id")
      );",
  "COMMENT ON TABLE "accounts" IS NULL",
  "COMMENT ON TABLE "accounts_events" IS NULL",
  "COMMENT ON TABLE "accounts_snapshots" IS NULL",
]
`;
